<?xml version="1.0" encoding="utf-8"?>
<!DOCTYPE eagle SYSTEM "eagle.dtd">
<eagle version="7.7.0">
<drawing>
<settings>
<setting alwaysvectorfont="no"/>
<setting verticaltext="up"/>
</settings>
<grid distance="25" unitdist="mil" unit="mil" style="lines" multiple="4" display="yes" altdistance="6.25" altunitdist="mil" altunit="mm"/>
<layers>
<layer number="1" name="Top" color="4" fill="1" visible="yes" active="yes"/>
<layer number="2" name="Route2" color="1" fill="3" visible="no" active="no"/>
<layer number="3" name="Route3" color="4" fill="3" visible="no" active="no"/>
<layer number="4" name="Route4" color="1" fill="4" visible="no" active="no"/>
<layer number="5" name="Route5" color="4" fill="4" visible="no" active="no"/>
<layer number="6" name="Route6" color="1" fill="8" visible="no" active="no"/>
<layer number="7" name="Route7" color="4" fill="8" visible="no" active="no"/>
<layer number="8" name="Route8" color="1" fill="2" visible="no" active="no"/>
<layer number="9" name="Route9" color="4" fill="2" visible="no" active="no"/>
<layer number="10" name="Route10" color="1" fill="7" visible="no" active="no"/>
<layer number="11" name="Route11" color="4" fill="7" visible="no" active="no"/>
<layer number="12" name="Route12" color="1" fill="5" visible="no" active="no"/>
<layer number="13" name="Route13" color="4" fill="5" visible="no" active="no"/>
<layer number="14" name="Route14" color="1" fill="6" visible="no" active="no"/>
<layer number="15" name="Route15" color="4" fill="6" visible="no" active="no"/>
<layer number="16" name="Bottom" color="1" fill="1" visible="yes" active="yes"/>
<layer number="17" name="Pads" color="2" fill="1" visible="yes" active="yes"/>
<layer number="18" name="Vias" color="2" fill="1" visible="yes" active="yes"/>
<layer number="19" name="Unrouted" color="6" fill="1" visible="yes" active="yes"/>
<layer number="20" name="Dimension" color="15" fill="1" visible="yes" active="yes"/>
<layer number="21" name="tPlace" color="7" fill="1" visible="yes" active="yes"/>
<layer number="22" name="bPlace" color="25" fill="1" visible="yes" active="yes"/>
<layer number="23" name="tOrigins" color="15" fill="1" visible="yes" active="yes"/>
<layer number="24" name="bOrigins" color="25" fill="1" visible="yes" active="yes"/>
<layer number="25" name="tNames" color="7" fill="1" visible="yes" active="yes"/>
<layer number="26" name="bNames" color="25" fill="1" visible="yes" active="yes"/>
<layer number="27" name="tValues" color="7" fill="1" visible="no" active="yes"/>
<layer number="28" name="bValues" color="25" fill="1" visible="no" active="yes"/>
<layer number="29" name="tStop" color="7" fill="3" visible="yes" active="yes"/>
<layer number="30" name="bStop" color="7" fill="6" visible="yes" active="yes"/>
<layer number="31" name="tCream" color="7" fill="4" visible="no" active="yes"/>
<layer number="32" name="bCream" color="7" fill="5" visible="no" active="yes"/>
<layer number="33" name="tFinish" color="6" fill="3" visible="no" active="yes"/>
<layer number="34" name="bFinish" color="6" fill="6" visible="no" active="yes"/>
<layer number="35" name="tGlue" color="7" fill="4" visible="no" active="yes"/>
<layer number="36" name="bGlue" color="7" fill="5" visible="no" active="yes"/>
<layer number="37" name="tTest" color="7" fill="1" visible="no" active="yes"/>
<layer number="38" name="bTest" color="7" fill="1" visible="no" active="yes"/>
<layer number="39" name="tKeepout" color="4" fill="11" visible="no" active="yes"/>
<layer number="40" name="bKeepout" color="1" fill="11" visible="no" active="yes"/>
<layer number="41" name="tRestrict" color="4" fill="10" visible="no" active="yes"/>
<layer number="42" name="bRestrict" color="1" fill="10" visible="no" active="yes"/>
<layer number="43" name="vRestrict" color="2" fill="10" visible="no" active="yes"/>
<layer number="44" name="Drills" color="7" fill="1" visible="no" active="yes"/>
<layer number="45" name="Holes" color="7" fill="1" visible="no" active="yes"/>
<layer number="46" name="Milling" color="3" fill="1" visible="no" active="yes"/>
<layer number="47" name="Measures" color="7" fill="1" visible="no" active="yes"/>
<layer number="48" name="Document" color="7" fill="1" visible="no" active="yes"/>
<layer number="49" name="Reference" color="7" fill="1" visible="no" active="yes"/>
<layer number="50" name="dxf" color="7" fill="1" visible="no" active="no"/>
<layer number="51" name="tDocu" color="7" fill="1" visible="no" active="yes"/>
<layer number="52" name="bDocu" color="25" fill="1" visible="no" active="yes"/>
<layer number="91" name="Nets" color="2" fill="1" visible="no" active="no"/>
<layer number="92" name="Busses" color="1" fill="1" visible="no" active="no"/>
<layer number="93" name="Pins" color="2" fill="1" visible="no" active="no"/>
<layer number="94" name="Symbols" color="4" fill="1" visible="no" active="no"/>
<layer number="95" name="Names" color="7" fill="1" visible="no" active="no"/>
<layer number="96" name="Values" color="7" fill="1" visible="no" active="no"/>
<layer number="97" name="Info" color="7" fill="1" visible="no" active="no"/>
<layer number="98" name="Guide" color="6" fill="1" visible="no" active="no"/>
<layer number="101" name="Hidden" color="15" fill="1" visible="no" active="yes"/>
<layer number="102" name="Changes" color="12" fill="1" visible="no" active="yes"/>
<layer number="200" name="200bmp" color="1" fill="10" visible="no" active="no"/>
<layer number="201" name="201bmp" color="1" fill="10" visible="no" active="yes"/>
<layer number="202" name="202bmp" color="2" fill="10" visible="no" active="yes"/>
<layer number="203" name="203bmp" color="3" fill="10" visible="no" active="yes"/>
<layer number="250" name="Descript" color="3" fill="1" visible="no" active="no"/>
<layer number="251" name="SMDround" color="12" fill="11" visible="no" active="no"/>
</layers>
<board>
<plain>
<wire x1="-4.445" y1="-1.905" x2="41.275" y2="-1.905" width="0" layer="20"/>
<wire x1="41.275" y1="-1.905" x2="41.275" y2="17.145" width="0" layer="20"/>
<wire x1="41.275" y1="17.145" x2="-4.445" y2="17.145" width="0" layer="20"/>
<wire x1="-4.445" y1="17.145" x2="-4.445" y2="-1.905" width="0" layer="20"/>
<hole x="30.48" y="10.00125" drill="0.6"/>
<hole x="30.48" y="11.1125" drill="0.6"/>
<hole x="30.48" y="12.22375" drill="0.6"/>
<hole x="30.48" y="13.335" drill="0.6"/>
<hole x="30.48" y="14.44625" drill="0.6"/>
<hole x="30.48" y="7.77875" drill="0.6"/>
<hole x="30.48" y="6.6675" drill="0.6"/>
<hole x="30.48" y="5.3975" drill="0.6"/>
<hole x="30.48" y="4.1275" drill="0.6"/>
<hole x="30.48" y="-0.9525" drill="0.6"/>
<hole x="30.48" y="0.15875" drill="0.6"/>
<hole x="30.48" y="15.5575" drill="0.6"/>
<hole x="30.48" y="16.66875" drill="0.6"/>
<hole x="30.48" y="3.01625" drill="0.6"/>
<text x="18.57375" y="5.23875" size="1.016" layer="26" font="vector" ratio="17" rot="MR0">GND</text>
<text x="19.05" y="2.69875" size="1.016" layer="26" font="vector" ratio="17" rot="MR0">+12V</text>
<wire x1="19.685" y1="6.985" x2="19.685" y2="4.445" width="0.2032" layer="26"/>
<wire x1="19.685" y1="4.445" x2="19.685" y2="1.905" width="0.2032" layer="26"/>
<wire x1="19.685" y1="1.905" x2="14.605" y2="1.905" width="0.2032" layer="26"/>
<wire x1="14.605" y1="1.905" x2="14.605" y2="4.445" width="0.2032" layer="26"/>
<wire x1="14.605" y1="4.445" x2="14.605" y2="6.985" width="0.2032" layer="26"/>
<wire x1="14.605" y1="6.985" x2="19.685" y2="6.985" width="0.2032" layer="26"/>
<wire x1="19.685" y1="4.445" x2="14.605" y2="4.445" width="0.2032" layer="26"/>
<text x="-3.4925" y="-1.5875" size="1.016" layer="26" font="vector" ratio="17" rot="MR90">TinyFanController v0.4</text>
<text x="27.14625" y="7.46125" size="1.016" layer="21" font="vector" ratio="17" rot="R90">1</text>
<text x="-4.1275" y="16.66875" size="1.016" layer="25" font="vector" ratio="17" rot="R270">8.12.
2020</text>
<text x="37.465" y="3.81" size="1.016" layer="26" font="vector" ratio="17" rot="MR90">rselec.de</text>
</plain>
<libraries>
<library name="rcl">
<packages>
<package name="C0805K">
<description>&lt;b&gt;Ceramic Chip Capacitor KEMET 0805 Reflow solder&lt;/b&gt;&lt;p&gt;
Metric Code Size 2012</description>
<wire x1="-0.925" y1="0.6" x2="0.925" y2="0.6" width="0.1016" layer="51"/>
<wire x1="0.925" y1="-0.6" x2="-0.925" y2="-0.6" width="0.1016" layer="51"/>
<smd name="1" x="-1" y="0" dx="1.3" dy="1.6" layer="1"/>
<smd name="2" x="1" y="0" dx="1.3" dy="1.6" layer="1"/>
<text x="-1" y="0.875" size="1.016" layer="25">&gt;NAME</text>
<text x="-1" y="-1.9" size="1.016" layer="27">&gt;VALUE</text>
<rectangle x1="-1" y1="-0.65" x2="-0.5" y2="0.65" layer="51"/>
<rectangle x1="0.5" y1="-0.65" x2="1" y2="0.65" layer="51"/>
</package>
<package name="C1206K">
<description>&lt;b&gt;Ceramic Chip Capacitor KEMET 1206 Reflow solder&lt;/b&gt;&lt;p&gt;
Metric Code Size 3216</description>
<wire x1="-1.525" y1="0.75" x2="1.525" y2="0.75" width="0.1016" layer="51"/>
<wire x1="1.525" y1="-0.75" x2="-1.525" y2="-0.75" width="0.1016" layer="51"/>
<smd name="1" x="-1.5" y="0" dx="1.5" dy="2" layer="1"/>
<smd name="2" x="1.5" y="0" dx="1.5" dy="2" layer="1"/>
<text x="-1.6" y="1.1" size="1.016" layer="25">&gt;NAME</text>
<text x="-1.6" y="-2.1" size="1.016" layer="27">&gt;VALUE</text>
<rectangle x1="-1.6" y1="-0.8" x2="-1.1" y2="0.8" layer="51"/>
<rectangle x1="1.1" y1="-0.8" x2="1.6" y2="0.8" layer="51"/>
</package>
<package name="R0805">
<description>&lt;b&gt;RESISTOR&lt;/b&gt;&lt;p&gt;
chip</description>
<wire x1="-0.41" y1="0.635" x2="0.41" y2="0.635" width="0.1524" layer="51"/>
<wire x1="-0.41" y1="-0.635" x2="0.41" y2="-0.635" width="0.1524" layer="51"/>
<wire x1="-1.973" y1="0.983" x2="1.973" y2="0.983" width="0.0508" layer="39"/>
<wire x1="1.973" y1="0.983" x2="1.973" y2="-0.983" width="0.0508" layer="39"/>
<wire x1="1.973" y1="-0.983" x2="-1.973" y2="-0.983" width="0.0508" layer="39"/>
<wire x1="-1.973" y1="-0.983" x2="-1.973" y2="0.983" width="0.0508" layer="39"/>
<smd name="1" x="-0.85" y="0" dx="1.3" dy="1.5" layer="1"/>
<smd name="2" x="0.85" y="0" dx="1.3" dy="1.5" layer="1"/>
<text x="-0.762" y="1.016" size="1.27" layer="25">&gt;NAME</text>
<text x="-0.762" y="-2.286" size="1.27" layer="27">&gt;VALUE</text>
<rectangle x1="0.4064" y1="-0.6985" x2="1.0564" y2="0.7015" layer="51"/>
<rectangle x1="-1.0668" y1="-0.6985" x2="-0.4168" y2="0.7015" layer="51"/>
<rectangle x1="-0.1999" y1="-0.5001" x2="0.1999" y2="0.5001" layer="35"/>
</package>
</packages>
</library>
<library name="linear">
<description>&lt;b&gt;Linear Devices&lt;/b&gt;&lt;p&gt;
Operational amplifiers,  comparators, voltage regulators, ADCs, DACs, etc.&lt;p&gt;
&lt;author&gt;Created by librarian@cadsoft.de&lt;/author&gt;</description>
<packages>
<package name="SO08">
<description>&lt;b&gt;Small Outline Package 8&lt;/b&gt;&lt;br&gt;
NS Package M08A</description>
<wire x1="2.4" y1="1.9" x2="2.4" y2="-1.4" width="0.2032" layer="51"/>
<wire x1="2.4" y1="-1.4" x2="2.4" y2="-1.9" width="0.2032" layer="51"/>
<wire x1="2.4" y1="-1.9" x2="-2.4" y2="-1.9" width="0.2032" layer="51"/>
<wire x1="-2.4" y1="-1.9" x2="-2.4" y2="-1.4" width="0.2032" layer="51"/>
<wire x1="-2.4" y1="-1.4" x2="-2.4" y2="1.9" width="0.2032" layer="51"/>
<wire x1="-2.4" y1="1.9" x2="2.4" y2="1.9" width="0.2032" layer="51"/>
<wire x1="2.4" y1="-1.4" x2="-2.4" y2="-1.4" width="0.2032" layer="51"/>
<smd name="2" x="-0.635" y="-2.6" dx="0.6" dy="2.2" layer="1"/>
<smd name="7" x="-0.635" y="2.6" dx="0.6" dy="2.2" layer="1"/>
<smd name="1" x="-1.905" y="-2.6" dx="0.6" dy="2.2" layer="1"/>
<smd name="3" x="0.635" y="-2.6" dx="0.6" dy="2.2" layer="1"/>
<smd name="4" x="1.905" y="-2.6" dx="0.6" dy="2.2" layer="1"/>
<smd name="8" x="-1.905" y="2.6" dx="0.6" dy="2.2" layer="1"/>
<smd name="6" x="0.635" y="2.6" dx="0.6" dy="2.2" layer="1"/>
<smd name="5" x="1.905" y="2.6" dx="0.6" dy="2.2" layer="1"/>
<text x="-2.667" y="-1.905" size="1.27" layer="25" rot="R90">&gt;NAME</text>
<text x="3.937" y="-1.905" size="1.27" layer="27" rot="R90">&gt;VALUE</text>
<rectangle x1="-2.15" y1="-3.1" x2="-1.66" y2="-2" layer="51"/>
<rectangle x1="-0.88" y1="-3.1" x2="-0.39" y2="-2" layer="51"/>
<rectangle x1="0.39" y1="-3.1" x2="0.88" y2="-2" layer="51"/>
<rectangle x1="1.66" y1="-3.1" x2="2.15" y2="-2" layer="51"/>
<rectangle x1="1.66" y1="2" x2="2.15" y2="3.1" layer="51"/>
<rectangle x1="0.39" y1="2" x2="0.88" y2="3.1" layer="51"/>
<rectangle x1="-0.88" y1="2" x2="-0.39" y2="3.1" layer="51"/>
<rectangle x1="-2.15" y1="2" x2="-1.66" y2="3.1" layer="51"/>
</package>
</packages>
</library>
<library name="con-headers-jp">
<description>&lt;b&gt;Male(J), Female(P) and Pin Headers&lt;/b&gt;&lt;p&gt;Version 1.02 - 03/10/2009&lt;p&gt;
This library is a collection of various pin headers and AMP, Molex and 3M board-to-board connectors. 
This library assumes the notion of JACKS(male) and PLUGS(female) as represented by the J and P symbols.
Standard male/female pin header types are available in common 0.1" and 2 mm pitch types with alternate mirrored footprints as well.
&lt;p&gt;THIS LIBRARY IS PROVIDED AS IS AND WITHOUT WARRANTY OF ANY KIND, EXPRESSED OR IMPLIED.&lt;br&gt;
USE AT YOUR OWN RISK!&lt;p&gt;
&lt;author&gt;Copyright (C) 2008, Bob Starr&lt;br&gt; http://www.bobstarr.net&lt;br&gt;&lt;/author&gt;</description>
<packages>
<package name="SIP-100-12-32">
<description>&lt;b&gt;SIP Header&lt;/b&gt; - 0.1", 32 mil drill</description>
<wire x1="15.24" y1="-1.27" x2="15.24" y2="1.27" width="0.254" layer="21"/>
<wire x1="15.24" y1="1.27" x2="-12.7" y2="1.27" width="0.254" layer="21"/>
<wire x1="-12.7" y1="1.27" x2="-15.24" y2="1.27" width="0.254" layer="21"/>
<wire x1="-15.24" y1="1.27" x2="-15.24" y2="-1.27" width="0.254" layer="21"/>
<wire x1="-15.24" y1="-1.27" x2="-12.7" y2="-1.27" width="0.254" layer="21"/>
<wire x1="-12.7" y1="-1.27" x2="15.24" y2="-1.27" width="0.254" layer="21"/>
<wire x1="-12.7" y1="1.27" x2="-12.7" y2="-1.27" width="0.254" layer="21"/>
<pad name="2" x="-11.43" y="0" drill="0.8128" diameter="1.778" shape="octagon" rot="R90"/>
<pad name="1" x="-13.97" y="0" drill="0.8128" diameter="1.778" shape="square" rot="R90"/>
<pad name="3" x="-8.89" y="0" drill="0.8128" diameter="1.778" shape="octagon" rot="R90"/>
<pad name="4" x="-6.35" y="0" drill="0.8128" diameter="1.778" shape="octagon" rot="R90"/>
<pad name="5" x="-3.81" y="0" drill="0.8128" diameter="1.778" shape="octagon" rot="R90"/>
<pad name="6" x="-1.27" y="0" drill="0.8128" diameter="1.778" shape="octagon" rot="R90"/>
<pad name="7" x="1.27" y="0" drill="0.8128" diameter="1.778" shape="octagon" rot="R90"/>
<pad name="8" x="3.81" y="0" drill="0.8128" diameter="1.778" shape="octagon" rot="R90"/>
<pad name="9" x="6.35" y="0" drill="0.8128" diameter="1.778" shape="octagon" rot="R90"/>
<pad name="10" x="8.89" y="0" drill="0.8128" diameter="1.778" shape="octagon" rot="R90"/>
<pad name="11" x="11.43" y="0" drill="0.8128" diameter="1.778" shape="octagon" rot="R90"/>
<pad name="12" x="13.97" y="0" drill="0.8128" diameter="1.778" shape="octagon" rot="R90"/>
<text x="-15.875" y="-1.27" size="1.016" layer="25" ratio="18" rot="R90">&gt;NAME</text>
<text x="16.51" y="-1.27" size="0.8128" layer="27" ratio="10" rot="R90">&gt;VALUE</text>
</package>
<package name="SIP-100-03-32">
<description>&lt;b&gt;SIP Header&lt;/b&gt; - 0.1", 32 mil drill</description>
<wire x1="3.81" y1="-1.27" x2="3.81" y2="1.27" width="0.254" layer="21"/>
<wire x1="3.81" y1="1.27" x2="-1.27" y2="1.27" width="0.254" layer="21"/>
<wire x1="-1.27" y1="1.27" x2="-3.81" y2="1.27" width="0.254" layer="21"/>
<wire x1="-3.81" y1="1.27" x2="-3.81" y2="-1.27" width="0.254" layer="21"/>
<wire x1="-3.81" y1="-1.27" x2="-1.27" y2="-1.27" width="0.254" layer="21"/>
<wire x1="-1.27" y1="-1.27" x2="3.81" y2="-1.27" width="0.254" layer="21"/>
<wire x1="-1.27" y1="1.27" x2="-1.27" y2="-1.27" width="0.254" layer="21"/>
<pad name="2" x="0" y="0" drill="0.8128" diameter="1.778" shape="octagon" rot="R90"/>
<pad name="1" x="-2.54" y="0" drill="0.8128" diameter="1.778" shape="square" rot="R90"/>
<pad name="3" x="2.54" y="0" drill="0.8128" diameter="1.778" shape="octagon" rot="R90"/>
<text x="-4.445" y="-1.27" size="1.016" layer="25" ratio="18" rot="R90">&gt;NAME</text>
<text x="5.08" y="-1.27" size="0.8128" layer="27" ratio="10" rot="R90">&gt;VALUE</text>
</package>
<package name="SIP-100-04-32">
<description>&lt;b&gt;SIP Header&lt;/b&gt; - 0.1", 32 mil drill</description>
<wire x1="5.08" y1="-1.27" x2="5.08" y2="1.27" width="0.254" layer="21"/>
<wire x1="5.08" y1="1.27" x2="-2.54" y2="1.27" width="0.254" layer="21"/>
<wire x1="-2.54" y1="1.27" x2="-5.08" y2="1.27" width="0.254" layer="21"/>
<wire x1="-5.08" y1="1.27" x2="-5.08" y2="-1.27" width="0.254" layer="21"/>
<wire x1="-5.08" y1="-1.27" x2="-2.54" y2="-1.27" width="0.254" layer="21"/>
<wire x1="-2.54" y1="-1.27" x2="5.08" y2="-1.27" width="0.254" layer="21"/>
<wire x1="-2.54" y1="1.27" x2="-2.54" y2="-1.27" width="0.254" layer="21"/>
<pad name="2" x="-1.27" y="0" drill="0.8128" diameter="1.778" shape="octagon" rot="R90"/>
<pad name="1" x="-3.81" y="0" drill="0.8128" diameter="1.778" shape="square" rot="R90"/>
<pad name="3" x="1.27" y="0" drill="0.8128" diameter="1.778" shape="octagon" rot="R90"/>
<pad name="4" x="3.81" y="0" drill="0.8128" diameter="1.778" shape="octagon" rot="R90"/>
<text x="-5.715" y="-1.27" size="1.016" layer="25" ratio="18" rot="R90">&gt;NAME</text>
<text x="6.35" y="-1.27" size="0.8128" layer="27" ratio="10" rot="R90">&gt;VALUE</text>
</package>
</packages>
</library>
<library name="con-molex">
<packages>
<package name="6410-02">
<description>&lt;b&gt;MOLEX 2.54mm KK  CONNECTOR&lt;/b&gt;</description>
<wire x1="-1.27" y1="2.54" x2="-1.27" y2="2.921" width="0.127" layer="21"/>
<wire x1="-2.54" y1="0" x2="-2.54" y2="2.921" width="0.254" layer="21"/>
<wire x1="-2.54" y1="2.921" x2="-1.27" y2="2.921" width="0.254" layer="21"/>
<wire x1="-1.016" y1="2.921" x2="-1.27" y2="2.921" width="0.127" layer="21"/>
<wire x1="-1.27" y1="2.921" x2="0" y2="2.921" width="0.254" layer="21"/>
<wire x1="2.54" y1="0" x2="2.54" y2="2.921" width="0.254" layer="21"/>
<wire x1="2.54" y1="2.921" x2="0" y2="2.921" width="0.127" layer="21"/>
<wire x1="-2.54" y1="0" x2="-2.54" y2="-2.921" width="0.254" layer="21"/>
<wire x1="-2.54" y1="-2.921" x2="0" y2="-2.921" width="0.254" layer="21"/>
<wire x1="2.54" y1="0" x2="2.54" y2="-2.921" width="0.254" layer="21"/>
<wire x1="2.54" y1="-2.921" x2="1.905" y2="-2.921" width="0.127" layer="21"/>
<wire x1="1.905" y1="-2.921" x2="0.635" y2="-2.921" width="0.254" layer="21"/>
<wire x1="0.635" y1="-2.921" x2="0" y2="-2.921" width="0.127" layer="21"/>
<wire x1="-2.286" y1="-2.921" x2="-1.905" y2="-2.921" width="0.127" layer="21"/>
<wire x1="-2.54" y1="-2.921" x2="-1.905" y2="-2.921" width="0.254" layer="21"/>
<wire x1="-1.905" y1="-2.921" x2="-1.905" y2="-2.286" width="0.254" layer="21"/>
<wire x1="-1.905" y1="-2.286" x2="-0.635" y2="-2.286" width="0.254" layer="21"/>
<wire x1="-0.635" y1="-2.286" x2="-0.635" y2="-2.921" width="0.254" layer="21"/>
<wire x1="-0.635" y1="-2.921" x2="0.635" y2="-2.921" width="0.254" layer="21"/>
<wire x1="0.635" y1="-2.921" x2="0.635" y2="-2.286" width="0.254" layer="21"/>
<wire x1="0.635" y1="-2.286" x2="1.905" y2="-2.286" width="0.254" layer="21"/>
<wire x1="1.905" y1="-2.286" x2="1.905" y2="-2.921" width="0.254" layer="21"/>
<wire x1="1.905" y1="-2.921" x2="2.54" y2="-2.921" width="0.254" layer="21"/>
<wire x1="-1.27" y1="1.905" x2="-1.27" y2="2.921" width="0.254" layer="21"/>
<wire x1="-1.27" y1="1.905" x2="-1.016" y2="1.905" width="0.254" layer="21"/>
<wire x1="-1.016" y1="1.905" x2="1.016" y2="1.905" width="0.254" layer="21"/>
<wire x1="1.016" y1="1.905" x2="1.27" y2="1.905" width="0.254" layer="21"/>
<wire x1="1.27" y1="1.905" x2="1.27" y2="2.921" width="0.254" layer="21"/>
<wire x1="-1.27" y1="1.905" x2="-1.016" y2="1.397" width="0.254" layer="21"/>
<wire x1="-1.016" y1="2.921" x2="-1.016" y2="1.905" width="0.254" layer="21"/>
<wire x1="-1.016" y1="1.397" x2="1.016" y2="1.397" width="0.254" layer="21"/>
<wire x1="1.016" y1="1.397" x2="1.27" y2="1.905" width="0.254" layer="21"/>
<wire x1="1.016" y1="2.921" x2="1.016" y2="1.905" width="0.254" layer="21"/>
<pad name="2" x="-1.27" y="0" drill="1.016" shape="long" rot="R90"/>
<pad name="1" x="1.27" y="0" drill="1.016" shape="long" rot="R90"/>
<text x="-2.5131" y="3.2751" size="1.016" layer="25" ratio="10">&gt;NAME</text>
<text x="3.2751" y="-0.6111" size="1.27" layer="21" ratio="14">1</text>
<text x="-3.7099" y="-0.6873" size="1.27" layer="21" ratio="14">2</text>
<text x="-2.5131" y="-4.5989" size="0.8128" layer="27" ratio="10">&gt;VALUE</text>
<rectangle x1="-1.524" y1="-0.254" x2="-1.016" y2="0.254" layer="51"/>
<rectangle x1="1.016" y1="-0.254" x2="1.524" y2="0.254" layer="51"/>
</package>
<package name="47053-1000">
<wire x1="-1.27" y1="2.84" x2="-1.27" y2="3.221" width="0.127" layer="21"/>
<wire x1="-5.08" y1="3.221" x2="-1.27" y2="3.221" width="0.254" layer="21"/>
<wire x1="-1.016" y1="3.221" x2="-1.27" y2="3.221" width="0.127" layer="21"/>
<wire x1="5.08" y1="3.221" x2="-1.27" y2="3.221" width="0.254" layer="21"/>
<wire x1="-5.08" y1="3.221" x2="-5.08" y2="-2.54" width="0.254" layer="21"/>
<wire x1="5.08" y1="3.221" x2="5.08" y2="-2.54" width="0.254" layer="21"/>
<wire x1="-1.27" y1="2.205" x2="-1.27" y2="3.221" width="0.254" layer="21"/>
<wire x1="-1.27" y1="2.205" x2="-1.016" y2="2.205" width="0.254" layer="21"/>
<wire x1="-1.016" y1="2.205" x2="3.556" y2="2.205" width="0.254" layer="21"/>
<wire x1="3.556" y1="2.205" x2="3.81" y2="2.205" width="0.254" layer="21"/>
<wire x1="3.81" y1="2.205" x2="3.81" y2="3.221" width="0.254" layer="21"/>
<wire x1="-1.27" y1="2.205" x2="-1.016" y2="1.697" width="0.254" layer="21"/>
<wire x1="-1.016" y1="3.221" x2="-1.016" y2="2.205" width="0.254" layer="21"/>
<wire x1="-1.016" y1="1.697" x2="3.556" y2="1.697" width="0.254" layer="21"/>
<wire x1="3.556" y1="1.697" x2="3.81" y2="2.205" width="0.254" layer="21"/>
<wire x1="3.556" y1="3.221" x2="3.556" y2="2.205" width="0.254" layer="21"/>
<pad name="4" x="-3.81" y="0" drill="1.016" shape="long" rot="R90"/>
<pad name="3" x="-1.27" y="0" drill="1.016" shape="offset" rot="R90"/>
<pad name="2" x="1.27" y="0" drill="1.016" shape="long" rot="R90"/>
<pad name="1" x="3.81" y="0" drill="1.016" shape="long" rot="R90"/>
<text x="-5.0531" y="3.5751" size="1.016" layer="25" ratio="10">&gt;NAME</text>
<text x="-5.0531" y="-3.9639" size="0.8128" layer="27" ratio="10">&gt;VALUE</text>
<rectangle x1="-4.064" y1="-0.254" x2="-3.556" y2="0.254" layer="51"/>
<rectangle x1="-1.524" y1="-0.254" x2="-1.016" y2="0.254" layer="51"/>
<rectangle x1="1.016" y1="-0.254" x2="1.524" y2="0.254" layer="51"/>
<rectangle x1="3.556" y1="-0.254" x2="4.064" y2="0.254" layer="51"/>
<hole x="-1.27" y="-2.16" drill="1.3"/>
<wire x1="-5.08" y1="-2.54" x2="-1.905" y2="-2.54" width="0.254" layer="21"/>
<wire x1="-0.635" y1="-2.54" x2="5.08" y2="-2.54" width="0.254" layer="21"/>
<wire x1="-1.905" y1="-2.54" x2="-0.635" y2="-2.54" width="0.254" layer="51"/>
</package>
</packages>
</library>
<library name="transistor-npn">
<packages>
<package name="SOT23">
<description>&lt;b&gt;SOT-23&lt;/b&gt;</description>
<wire x1="1.4224" y1="0.6604" x2="1.4224" y2="-0.6604" width="0.1524" layer="51"/>
<wire x1="1.4224" y1="-0.6604" x2="-1.4224" y2="-0.6604" width="0.1524" layer="51"/>
<wire x1="-1.4224" y1="-0.6604" x2="-1.4224" y2="0.6604" width="0.1524" layer="51"/>
<wire x1="-1.4224" y1="0.6604" x2="1.4224" y2="0.6604" width="0.1524" layer="51"/>
<smd name="3" x="0" y="1.1" dx="1" dy="1.4" layer="1"/>
<smd name="2" x="0.95" y="-1.1" dx="1" dy="1.4" layer="1"/>
<smd name="1" x="-0.95" y="-1.1" dx="1" dy="1.4" layer="1"/>
<text x="-1.905" y="1.905" size="1.27" layer="25">&gt;NAME</text>
<text x="-1.905" y="-3.175" size="1.27" layer="27">&gt;VALUE</text>
<rectangle x1="-0.2286" y1="0.7112" x2="0.2286" y2="1.2954" layer="51"/>
<rectangle x1="0.7112" y1="-1.2954" x2="1.1684" y2="-0.7112" layer="51"/>
<rectangle x1="-1.1684" y1="-1.2954" x2="-0.7112" y2="-0.7112" layer="51"/>
</package>
</packages>
</library>
<library name="switch-omron">
<description>&lt;b&gt;Omron Switches&lt;/b&gt;&lt;p&gt;
&lt;author&gt;Created by librarian@cadsoft.de&lt;/author&gt;</description>
<packages>
<package name="B3F-10XX-SM">
<wire x1="3.302" y1="-0.762" x2="3.048" y2="-0.762" width="0.1524" layer="21"/>
<wire x1="3.302" y1="-0.762" x2="3.302" y2="0.762" width="0.1524" layer="21"/>
<wire x1="3.048" y1="0.762" x2="3.302" y2="0.762" width="0.1524" layer="21"/>
<wire x1="3.048" y1="1.016" x2="3.048" y2="2.54" width="0.1524" layer="51"/>
<wire x1="-3.302" y1="0.762" x2="-3.048" y2="0.762" width="0.1524" layer="21"/>
<wire x1="-3.302" y1="0.762" x2="-3.302" y2="-0.762" width="0.1524" layer="21"/>
<wire x1="-3.048" y1="-0.762" x2="-3.302" y2="-0.762" width="0.1524" layer="21"/>
<wire x1="3.048" y1="2.54" x2="2.54" y2="3.048" width="0.1524" layer="51"/>
<wire x1="2.54" y1="-3.048" x2="3.048" y2="-2.54" width="0.1524" layer="51"/>
<wire x1="3.048" y1="-2.54" x2="3.048" y2="-1.016" width="0.1524" layer="51"/>
<wire x1="-2.54" y1="3.048" x2="-3.048" y2="2.54" width="0.1524" layer="51"/>
<wire x1="-3.048" y1="2.54" x2="-3.048" y2="1.016" width="0.1524" layer="51"/>
<wire x1="-2.54" y1="-3.048" x2="-3.048" y2="-2.54" width="0.1524" layer="51"/>
<wire x1="-3.048" y1="-2.54" x2="-3.048" y2="-1.016" width="0.1524" layer="51"/>
<wire x1="-1.27" y1="1.27" x2="-1.27" y2="-1.27" width="0.0508" layer="51"/>
<wire x1="1.27" y1="-1.27" x2="-1.27" y2="-1.27" width="0.0508" layer="51"/>
<wire x1="1.27" y1="-1.27" x2="1.27" y2="1.27" width="0.0508" layer="51"/>
<wire x1="-1.27" y1="1.27" x2="1.27" y2="1.27" width="0.0508" layer="51"/>
<wire x1="-1.27" y1="3.048" x2="-1.27" y2="2.794" width="0.0508" layer="21"/>
<wire x1="1.27" y1="2.794" x2="-1.27" y2="2.794" width="0.0508" layer="21"/>
<wire x1="1.27" y1="2.794" x2="1.27" y2="3.048" width="0.0508" layer="21"/>
<wire x1="1.143" y1="-2.794" x2="-1.27" y2="-2.794" width="0.0508" layer="21"/>
<wire x1="1.143" y1="-2.794" x2="1.143" y2="-3.048" width="0.0508" layer="21"/>
<wire x1="-1.27" y1="-2.794" x2="-1.27" y2="-3.048" width="0.0508" layer="21"/>
<wire x1="2.54" y1="-3.048" x2="2.159" y2="-3.048" width="0.1524" layer="51"/>
<wire x1="-2.54" y1="-3.048" x2="-2.159" y2="-3.048" width="0.1524" layer="51"/>
<wire x1="-2.159" y1="-3.048" x2="-1.27" y2="-3.048" width="0.1524" layer="21"/>
<wire x1="-2.54" y1="3.048" x2="-2.159" y2="3.048" width="0.1524" layer="51"/>
<wire x1="2.54" y1="3.048" x2="2.159" y2="3.048" width="0.1524" layer="51"/>
<wire x1="2.159" y1="3.048" x2="1.27" y2="3.048" width="0.1524" layer="21"/>
<wire x1="1.27" y1="3.048" x2="-1.27" y2="3.048" width="0.1524" layer="21"/>
<wire x1="-1.27" y1="3.048" x2="-2.159" y2="3.048" width="0.1524" layer="21"/>
<wire x1="-1.27" y1="-3.048" x2="1.143" y2="-3.048" width="0.1524" layer="21"/>
<wire x1="1.143" y1="-3.048" x2="2.159" y2="-3.048" width="0.1524" layer="21"/>
<wire x1="3.048" y1="-0.762" x2="3.048" y2="-1.016" width="0.1524" layer="21"/>
<wire x1="3.048" y1="0.762" x2="3.048" y2="1.016" width="0.1524" layer="21"/>
<wire x1="-3.048" y1="-0.762" x2="-3.048" y2="-1.016" width="0.1524" layer="21"/>
<wire x1="-3.048" y1="0.762" x2="-3.048" y2="1.016" width="0.1524" layer="21"/>
<wire x1="-1.27" y1="-2.159" x2="1.27" y2="-2.159" width="0.1524" layer="51"/>
<wire x1="1.27" y1="2.286" x2="-1.27" y2="2.286" width="0.1524" layer="51"/>
<wire x1="-2.413" y1="1.27" x2="-2.413" y2="0.508" width="0.1524" layer="51"/>
<wire x1="-2.413" y1="-0.508" x2="-2.413" y2="-1.27" width="0.1524" layer="51"/>
<wire x1="-2.413" y1="0.508" x2="-2.159" y2="-0.381" width="0.1524" layer="51"/>
<circle x="0" y="0" radius="1.778" width="0.1524" layer="21"/>
<circle x="-2.159" y="-2.159" radius="0.508" width="0.1524" layer="51"/>
<circle x="2.159" y="-2.032" radius="0.508" width="0.1524" layer="51"/>
<circle x="2.159" y="2.159" radius="0.508" width="0.1524" layer="51"/>
<circle x="-2.159" y="2.159" radius="0.508" width="0.1524" layer="51"/>
<circle x="0" y="0" radius="0.635" width="0.0508" layer="51"/>
<circle x="0" y="0" radius="0.254" width="0.1524" layer="21"/>
<pad name="1" x="-3.2512" y="2.2606" drill="1.016" diameter="1.778" rot="R180"/>
<pad name="3" x="-3.2512" y="-2.2606" drill="1.016" diameter="1.778"/>
<pad name="2" x="3.2512" y="2.2606" drill="1.016" diameter="1.778"/>
<pad name="4" x="3.2512" y="-2.2606" drill="1.016" diameter="1.778"/>
<text x="-3.048" y="3.683" size="1.27" layer="25" ratio="10">&gt;NAME</text>
<text x="-3.048" y="-5.08" size="1.27" layer="27" ratio="10">&gt;VALUE</text>
<text x="-4.318" y="1.651" size="1.27" layer="51" ratio="10">1</text>
<text x="3.556" y="1.524" size="1.27" layer="51" ratio="10">2</text>
<text x="-4.572" y="-2.794" size="1.27" layer="51" ratio="10">3</text>
<text x="3.556" y="-2.794" size="1.27" layer="51" ratio="10">4</text>
</package>
</packages>
</library>
</libraries>
<attributes>
</attributes>
<variantdefs>
</variantdefs>
<classes>
<class number="0" name="default" width="0" drill="0">
</class>
</classes>
<designrules name="JLCPCB 2019-05-21">
<description language="de">&lt;b&gt;JLCPCB Design Rules&lt;/b&gt;
&lt;p&gt;
Gemäß JLCPCB Capabilities vom 21.5.2019.</description>
<description language="en">&lt;b&gt;EAGLE Design Rules&lt;/b&gt;
&lt;p&gt;
The default Design Rules have been set to cover
a wide range of applications. Your particular design
may have different requirements, so please make the
necessary adjustments and save your customized
design rules under a new name.</description>
<description language="zh">&lt;b&gt;NOA-Labs EAGLE Design Rules&lt;/b&gt;
</description>
<param name="layerSetup" value="(1*16)"/>
<param name="mtCopper" value="0.035mm 0.035mm 0.035mm 0.035mm 0.035mm 0.035mm 0.035mm 0.035mm 0.035mm 0.035mm 0.035mm 0.035mm 0.035mm 0.035mm 0.035mm 0.035mm"/>
<param name="mtIsolate" value="1.5mm 0.15mm 0.2mm 0.15mm 0.2mm 0.15mm 0.2mm 0.15mm 0.2mm 0.15mm 0.2mm 0.15mm 0.2mm 0.15mm 0.2mm"/>
<param name="mdWireWire" value="5mil"/>
<param name="mdWirePad" value="5mil"/>
<param name="mdWireVia" value="5mil"/>
<param name="mdPadPad" value="5mil"/>
<param name="mdPadVia" value="5mil"/>
<param name="mdViaVia" value="5mil"/>
<param name="mdSmdPad" value="2mil"/>
<param name="mdSmdVia" value="2mil"/>
<param name="mdSmdSmd" value="2mil"/>
<param name="mdViaViaSameLayer" value="8mil"/>
<param name="mnLayersViaInSmd" value="2"/>
<param name="mdCopperDimension" value="0.5mm"/>
<param name="mdDrill" value="11mil"/>
<param name="mdSmdStop" value="0mil"/>
<param name="msWidth" value="5mil"/>
<param name="msDrill" value="0.3mm"/>
<param name="msMicroVia" value="9.99mm"/>
<param name="msBlindViaRatio" value="0.5"/>
<param name="rvPadTop" value="0.25"/>
<param name="rvPadInner" value="0.25"/>
<param name="rvPadBottom" value="0.25"/>
<param name="rvViaOuter" value="0.25"/>
<param name="rvViaInner" value="0.25"/>
<param name="rvMicroViaOuter" value="0.25"/>
<param name="rvMicroViaInner" value="0.25"/>
<param name="rlMinPadTop" value="0.15mm"/>
<param name="rlMaxPadTop" value="20mil"/>
<param name="rlMinPadInner" value="0.15mm"/>
<param name="rlMaxPadInner" value="20mil"/>
<param name="rlMinPadBottom" value="0.15mm"/>
<param name="rlMaxPadBottom" value="20mil"/>
<param name="rlMinViaOuter" value="0.15mm"/>
<param name="rlMaxViaOuter" value="20mil"/>
<param name="rlMinViaInner" value="0.15mm"/>
<param name="rlMaxViaInner" value="20mil"/>
<param name="rlMinMicroViaOuter" value="4mil"/>
<param name="rlMaxMicroViaOuter" value="20mil"/>
<param name="rlMinMicroViaInner" value="4mil"/>
<param name="rlMaxMicroViaInner" value="20mil"/>
<param name="psTop" value="-1"/>
<param name="psBottom" value="-1"/>
<param name="psFirst" value="0"/>
<param name="psElongationLong" value="100"/>
<param name="psElongationOffset" value="100"/>
<param name="mvStopFrame" value="1"/>
<param name="mvCreamFrame" value="0"/>
<param name="mlMinStopFrame" value="2mil"/>
<param name="mlMaxStopFrame" value="2mil"/>
<param name="mlMinCreamFrame" value="0mil"/>
<param name="mlMaxCreamFrame" value="0mil"/>
<param name="mlViaStopLimit" value="25mil"/>
<param name="srRoundness" value="0"/>
<param name="srMinRoundness" value="0mil"/>
<param name="srMaxRoundness" value="0mil"/>
<param name="slThermalIsolate" value="8mil"/>
<param name="slThermalsForVias" value="0"/>
<param name="dpMaxLengthDifference" value="10mm"/>
<param name="dpGapFactor" value="2.5"/>
<param name="checkGrid" value="0"/>
<param name="checkAngle" value="0"/>
<param name="checkFont" value="1"/>
<param name="checkRestrict" value="0"/>
<param name="useDiameter" value="13"/>
<param name="maxErrors" value="50"/>
</designrules>
<autorouter>
<pass name="Default">
<param name="RoutingGrid" value="50mil"/>
<param name="AutoGrid" value="1"/>
<param name="Efforts" value="0"/>
<param name="TopRouterVariant" value="1"/>
<param name="tpViaShape" value="round"/>
<param name="PrefDir.1" value="a"/>
<param name="PrefDir.2" value="0"/>
<param name="PrefDir.3" value="0"/>
<param name="PrefDir.4" value="0"/>
<param name="PrefDir.5" value="0"/>
<param name="PrefDir.6" value="0"/>
<param name="PrefDir.7" value="0"/>
<param name="PrefDir.8" value="0"/>
<param name="PrefDir.9" value="0"/>
<param name="PrefDir.10" value="0"/>
<param name="PrefDir.11" value="0"/>
<param name="PrefDir.12" value="0"/>
<param name="PrefDir.13" value="0"/>
<param name="PrefDir.14" value="0"/>
<param name="PrefDir.15" value="0"/>
<param name="PrefDir.16" value="a"/>
<param name="cfVia" value="8"/>
<param name="cfNonPref" value="5"/>
<param name="cfChangeDir" value="2"/>
<param name="cfOrthStep" value="2"/>
<param name="cfDiagStep" value="3"/>
<param name="cfExtdStep" value="0"/>
<param name="cfBonusStep" value="1"/>
<param name="cfMalusStep" value="1"/>
<param name="cfPadImpact" value="4"/>
<param name="cfSmdImpact" value="4"/>
<param name="cfBusImpact" value="0"/>
<param name="cfHugging" value="3"/>
<param name="cfAvoid" value="4"/>
<param name="cfPolygon" value="10"/>
<param name="cfBase.1" value="0"/>
<param name="cfBase.2" value="1"/>
<param name="cfBase.3" value="1"/>
<param name="cfBase.4" value="1"/>
<param name="cfBase.5" value="1"/>
<param name="cfBase.6" value="1"/>
<param name="cfBase.7" value="1"/>
<param name="cfBase.8" value="1"/>
<param name="cfBase.9" value="1"/>
<param name="cfBase.10" value="1"/>
<param name="cfBase.11" value="1"/>
<param name="cfBase.12" value="1"/>
<param name="cfBase.13" value="1"/>
<param name="cfBase.14" value="1"/>
<param name="cfBase.15" value="1"/>
<param name="cfBase.16" value="0"/>
<param name="mnVias" value="20"/>
<param name="mnSegments" value="9999"/>
<param name="mnExtdSteps" value="9999"/>
<param name="mnRipupLevel" value="10"/>
<param name="mnRipupSteps" value="100"/>
<param name="mnRipupTotal" value="100"/>
</pass>
<pass name="Follow-me" refer="Default" active="yes">
</pass>
<pass name="Busses" refer="Default" active="yes">
<param name="cfNonPref" value="4"/>
<param name="cfBusImpact" value="4"/>
<param name="cfHugging" value="0"/>
<param name="mnVias" value="0"/>
</pass>
<pass name="Route" refer="Default" active="yes">
</pass>
<pass name="Optimize1" refer="Default" active="yes">
<param name="cfVia" value="99"/>
<param name="cfExtdStep" value="10"/>
<param name="cfHugging" value="1"/>
<param name="mnExtdSteps" value="1"/>
<param name="mnRipupLevel" value="0"/>
</pass>
<pass name="Optimize2" refer="Optimize1" active="yes">
<param name="cfNonPref" value="0"/>
<param name="cfChangeDir" value="6"/>
<param name="cfExtdStep" value="0"/>
<param name="cfBonusStep" value="2"/>
<param name="cfMalusStep" value="2"/>
<param name="cfPadImpact" value="2"/>
<param name="cfSmdImpact" value="2"/>
<param name="cfHugging" value="0"/>
</pass>
<pass name="Optimize3" refer="Optimize2" active="yes">
<param name="cfChangeDir" value="8"/>
<param name="cfPadImpact" value="0"/>
<param name="cfSmdImpact" value="0"/>
</pass>
<pass name="Optimize4" refer="Optimize3" active="yes">
<param name="cfChangeDir" value="25"/>
</pass>
</autorouter>
<elements>
<element name="C1" library="rcl" package="C0805K" value="open" x="27.305" y="12.065" smashed="yes" rot="MR180">
<attribute name="NAME" x="26.46375" y="14.0475" size="1.016" layer="26" font="vector" ratio="17" rot="MR180"/>
<attribute name="VALUE" x="28.94" y="11.59375" size="1.016" layer="28" rot="MR0"/>
</element>
<element name="C2" library="rcl" package="C0805K" value="open" x="23.495" y="12.065" smashed="yes" rot="MR0">
<attribute name="NAME" x="22.495" y="14.0475" size="1.016" layer="26" font="vector" ratio="17" rot="MR180"/>
<attribute name="VALUE" x="24.97125" y="11.59375" size="1.016" layer="28" rot="MR0"/>
</element>
<element name="C3" library="rcl" package="C0805K" value="100n" x="-0.3175" y="3.33375" smashed="yes" rot="R90">
<attribute name="NAME" x="0.905" y="1.66875" size="1.016" layer="25" font="vector" ratio="17"/>
<attribute name="VALUE" x="0.15375" y="1.69875" size="1.016" layer="27" rot="R90"/>
</element>
<element name="C4" library="rcl" package="C0805K" value="100n" x="-2.54" y="0.635" smashed="yes" rot="R270">
<attribute name="NAME" x="-0.7125" y="9.255" size="1.016" layer="25" font="vector" ratio="17" rot="R270"/>
<attribute name="VALUE" x="-3.01125" y="2.11125" size="1.016" layer="27" rot="R270"/>
</element>
<element name="C5" library="rcl" package="C0805K" value="100n" x="28.575" y="10.16" smashed="yes" rot="R90">
<attribute name="NAME" x="29.575" y="13.095" size="1.016" layer="25" font="vector" ratio="17" rot="R180"/>
<attribute name="VALUE" x="29.04625" y="8.68375" size="1.016" layer="27" rot="R90"/>
</element>
<element name="C6" library="rcl" package="C1206K" value="4µ7/35" x="13.97" y="10.795" smashed="yes" rot="R90">
<attribute name="NAME" x="13.16375" y="7.1325" size="1.016" layer="25" font="vector" ratio="17"/>
<attribute name="VALUE" x="14.32375" y="8.71875" size="1.016" layer="27" ratio="17" rot="R90"/>
</element>
<element name="IC1" library="linear" package="SO08" value="L78L05ACD" x="23.495" y="10.795" smashed="yes" rot="R90">
<attribute name="NAME" x="22.987" y="12.22375" size="1.016" layer="25" font="vector" ratio="17" rot="R270"/>
<attribute name="VALUE" x="24.47925" y="13.49375" size="0.8128" layer="27" rot="R270"/>
</element>
<element name="J1" library="con-headers-jp" package="SIP-100-12-32" value="F-1X12-SIP-100-32" x="13.97" y="0" smashed="yes" rot="R180"/>
<element name="J2" library="con-headers-jp" package="SIP-100-12-32" value="F-1X12-SIP-100-32" x="13.97" y="15.24" smashed="yes"/>
<element name="T0" library="con-headers-jp" package="SIP-100-03-32" value="F-1X03-SIP-100-32" x="25.4" y="3.175" smashed="yes" rot="MR180">
<attribute name="NAME" x="21.2725" y="4.28625" size="1.016" layer="26" font="vector" ratio="17" rot="MR270"/>
</element>
<element name="T1" library="con-headers-jp" package="SIP-100-03-32" value="F-1X03-SIP-100-32" x="25.4" y="6.35" smashed="yes" rot="MR180">
<attribute name="NAME" x="21.2725" y="7.46125" size="1.016" layer="26" font="vector" ratio="17" rot="MR270"/>
</element>
<element name="OLED" library="con-headers-jp" package="SIP-100-04-32" value="F-1X04-SIP-100-32" x="32.86125" y="7.62" smashed="yes" rot="R90">
<attribute name="NAME" x="32.385" y="16.8275" size="1.016" layer="25" font="vector" ratio="17" rot="R270"/>
</element>
<element name="J6" library="con-molex" package="6410-02" value="22-27-2021-02" x="17.78" y="10.795" smashed="yes" rot="MR90"/>
<element name="FAN0" library="con-molex" package="47053-1000" value="47053-1000V" x="10.16" y="7.62" smashed="yes" rot="MR90">
<attribute name="NAME" x="6.27385" y="9.2344" size="1.016" layer="26" font="vector" ratio="17" rot="MR90"/>
<attribute name="VALUE" x="6.1961" y="0.6619" size="1.016" layer="28" ratio="10" rot="MR90"/>
</element>
<element name="FAN1" library="con-molex" package="47053-1000" value="47053-1000V" x="2.54" y="7.62" smashed="yes" rot="MR90">
<attribute name="NAME" x="-1.5049" y="9.2344" size="1.016" layer="26" font="vector" ratio="17" rot="MR90"/>
<attribute name="VALUE" x="-1.4239" y="0.6619" size="1.016" layer="28" ratio="10" rot="MR90"/>
</element>
<element name="Q2" library="transistor-npn" package="SOT23" value="BC847B" x="13.335" y="3.81" smashed="yes" rot="R90">
<attribute name="NAME" x="13.335" y="2.8575" size="1.016" layer="25" font="vector" ratio="17" rot="R180"/>
<attribute name="VALUE" x="15.08125" y="4.1275" size="0.6096" layer="27" rot="R180"/>
</element>
<element name="Q3" library="transistor-npn" package="SOT23" value="BC847B" x="5.715" y="3.81" smashed="yes" rot="R90">
<attribute name="NAME" x="5.87375" y="2.8575" size="1.016" layer="25" font="vector" ratio="17" rot="R180"/>
<attribute name="VALUE" x="7.46125" y="4.1275" size="0.6096" layer="27" rot="R180"/>
</element>
<element name="R1" library="rcl" package="R0805" value="4k7" x="18.415" y="5.715" smashed="yes" rot="R180">
<attribute name="NAME" x="22.0345" y="6.2865" size="1.016" layer="25" font="vector" ratio="17" rot="R180"/>
<attribute name="VALUE" x="19.4945" y="6.096" size="1.016" layer="27" rot="R180"/>
</element>
<element name="R2" library="rcl" package="R0805" value="4k7" x="27.305" y="9.525" smashed="yes" rot="MR180">
<attribute name="NAME" x="28.067" y="7.52475" size="1.016" layer="26" font="vector" ratio="17" rot="MR0"/>
<attribute name="VALUE" x="28.3845" y="8.98525" size="1.016" layer="28" rot="MR0"/>
</element>
<element name="R3" library="rcl" package="R0805" value="4k7" x="23.495" y="9.525" smashed="yes" rot="MR0">
<attribute name="NAME" x="24.257" y="7.52475" size="1.016" layer="26" font="vector" ratio="17" rot="MR0"/>
<attribute name="VALUE" x="24.5745" y="8.98525" size="1.016" layer="28" rot="MR0"/>
</element>
<element name="R4" library="rcl" package="R0805" value="4k7" x="7.14375" y="11.58875" smashed="yes" rot="R90">
<attribute name="NAME" x="5.969" y="10.668" size="1.016" layer="25" font="vector" ratio="17" rot="R90"/>
<attribute name="VALUE" x="7.6835" y="10.50925" size="1.016" layer="27" rot="R90"/>
</element>
<element name="R5" library="rcl" package="R0805" value="4k7" x="-2.54" y="9.525" smashed="yes" rot="R90">
<attribute name="NAME" x="-0.73025" y="13.62075" size="1.016" layer="25" font="vector" ratio="17" rot="R270"/>
<attribute name="VALUE" x="-2.00025" y="8.4455" size="1.016" layer="27" rot="R90"/>
</element>
<element name="R6" library="rcl" package="R0805" value="4k7" x="18.415" y="3.175" smashed="yes" rot="R180">
<attribute name="NAME" x="22.0345" y="3.7465" size="1.016" layer="25" font="vector" ratio="17" rot="R180"/>
<attribute name="VALUE" x="19.4945" y="3.71475" size="1.016" layer="27" rot="R180"/>
</element>
<element name="R7" library="rcl" package="R0805" value="4k7" x="6.35" y="8.89" smashed="yes">
<attribute name="NAME" x="5.588" y="6.731" size="1.016" layer="25" font="vector" ratio="17"/>
<attribute name="VALUE" x="5.11175" y="8.35025" size="1.016" layer="27"/>
</element>
<element name="R8" library="rcl" package="R0805" value="4k7" x="-2.54" y="5.08" smashed="yes" rot="R90">
<attribute name="NAME" x="-0.73025" y="11.39825" size="1.016" layer="25" font="vector" ratio="17" rot="R270"/>
<attribute name="VALUE" x="-2.00025" y="3.84175" size="1.016" layer="27" rot="R90"/>
</element>
<element name="K0" library="switch-omron" package="B3F-10XX-SM" value="" x="37.62375" y="3.01625" smashed="yes" rot="R90">
<attribute name="NAME" x="38.76675" y="-0.508" size="1.016" layer="25" font="vector" ratio="17" rot="R180"/>
<attribute name="VALUE" x="42.70375" y="-0.03175" size="1.27" layer="27" ratio="10" rot="R90"/>
</element>
<element name="K1" library="switch-omron" package="B3F-10XX-SM" value="" x="37.62375" y="12.22375" smashed="yes" rot="R90">
<attribute name="NAME" x="38.608" y="16.79575" size="1.016" layer="25" font="vector" ratio="17" rot="R180"/>
<attribute name="VALUE" x="42.70375" y="9.17575" size="1.27" layer="27" ratio="10" rot="R90"/>
</element>
</elements>
<signals>
<signal name="N$21">
<contactref element="Q3" pad="1"/>
<contactref element="R6" pad="2"/>
<wire x1="17.565" y1="3.175" x2="17.145" y2="3.175" width="0.254" layer="1"/>
<wire x1="17.145" y1="3.175" x2="15.875" y2="1.905" width="0.254" layer="1"/>
<wire x1="15.875" y1="1.905" x2="8.89" y2="1.905" width="0.254" layer="1"/>
<wire x1="8.89" y1="1.905" x2="7.935" y2="2.86" width="0.254" layer="1"/>
<wire x1="6.815" y1="2.86" x2="7.935" y2="2.86" width="0.254" layer="1"/>
</signal>
<signal name="PWM_0">
<contactref element="R1" pad="1"/>
<contactref element="J2" pad="12"/>
<wire x1="19.265" y1="5.715" x2="20.32" y2="5.715" width="0.254" layer="1"/>
<wire x1="20.32" y1="5.715" x2="20.955" y2="6.35" width="0.254" layer="1"/>
<wire x1="20.955" y1="6.35" x2="20.955" y2="6.82625" width="0.254" layer="1"/>
<wire x1="20.955" y1="6.82625" x2="22.70125" y2="8.5725" width="0.254" layer="1"/>
<wire x1="22.70125" y1="8.5725" x2="22.70125" y2="10.95375" width="0.254" layer="1"/>
<wire x1="22.70125" y1="10.95375" x2="24.13" y2="12.3825" width="0.254" layer="1"/>
<wire x1="24.13" y1="12.3825" x2="24.13" y2="13.17625" width="0.254" layer="1"/>
<wire x1="24.13" y1="13.17625" x2="24.4475" y2="13.49375" width="0.254" layer="1"/>
<wire x1="24.4475" y1="13.49375" x2="26.19375" y2="13.49375" width="0.254" layer="1"/>
<wire x1="26.19375" y1="13.49375" x2="27.94" y2="15.24" width="0.254" layer="1"/>
</signal>
<signal name="N$19">
<contactref element="Q2" pad="1"/>
<contactref element="R1" pad="2"/>
<wire x1="14.435" y1="2.86" x2="14.71" y2="2.86" width="0.254" layer="1"/>
<wire x1="14.71" y1="2.86" x2="17.565" y2="5.715" width="0.254" layer="1"/>
</signal>
<signal name="N$22">
<contactref element="FAN0" pad="4"/>
<contactref element="Q2" pad="3"/>
<wire x1="10.16" y1="3.81" x2="12.235" y2="3.81" width="1.016" layer="1"/>
</signal>
<signal name="N$25">
<contactref element="FAN1" pad="4"/>
<contactref element="Q3" pad="3"/>
<wire x1="4.615" y1="3.81" x2="2.54" y2="3.81" width="1.016" layer="1"/>
</signal>
<signal name="+12V">
<contactref element="FAN0" pad="2"/>
<contactref element="FAN1" pad="2"/>
<contactref element="IC1" pad="8"/>
<contactref element="C6" pad="1"/>
<contactref element="J6" pad="2"/>
<wire x1="17.78" y1="9.525" x2="13.97" y2="9.525" width="1.6764" layer="1"/>
<wire x1="13.97" y1="9.525" x2="13.97" y2="9.295" width="1.6764" layer="1"/>
<wire x1="10.16" y1="8.89" x2="13.97" y2="8.89" width="1.6764" layer="1"/>
<wire x1="13.97" y1="8.89" x2="13.97" y2="9.295" width="1.6764" layer="1"/>
<wire x1="2.54" y1="8.89" x2="10.16" y2="8.89" width="1.6764" layer="16"/>
<wire x1="20.895" y1="8.89" x2="19.685" y2="8.89" width="0.6096" layer="1"/>
<wire x1="19.685" y1="8.89" x2="19.05" y2="9.525" width="0.6096" layer="1"/>
<wire x1="19.05" y1="9.525" x2="17.78" y2="9.525" width="0.6096" layer="1"/>
</signal>
<signal name="GND">
<contactref element="Q3" pad="2"/>
<contactref element="Q2" pad="2"/>
<contactref element="FAN1" pad="1"/>
<contactref element="FAN0" pad="1"/>
<contactref element="C3" pad="2"/>
<contactref element="C4" pad="2"/>
<contactref element="T0" pad="3"/>
<contactref element="C1" pad="2"/>
<contactref element="T1" pad="3"/>
<contactref element="C2" pad="2"/>
<contactref element="OLED" pad="4"/>
<contactref element="K0" pad="3"/>
<contactref element="K0" pad="4"/>
<contactref element="K1" pad="4"/>
<contactref element="K1" pad="3"/>
<contactref element="IC1" pad="3"/>
<contactref element="IC1" pad="2"/>
<contactref element="IC1" pad="6"/>
<contactref element="IC1" pad="7"/>
<contactref element="C5" pad="2"/>
<contactref element="C6" pad="2"/>
<contactref element="J6" pad="1"/>
<contactref element="J2" pad="2"/>
<contactref element="J1" pad="10"/>
<contactref element="J1" pad="9"/>
<polygon width="0.254" layer="1" isolate="0.254">
<vertex x="-5.08" y="-2.54"/>
<vertex x="43.18" y="-2.54"/>
<vertex x="43.18" y="17.78"/>
<vertex x="-5.08" y="17.78"/>
</polygon>
<polygon width="0.254" layer="16" isolate="0.254">
<vertex x="-5.08" y="-2.54"/>
<vertex x="43.18" y="-2.54"/>
<vertex x="43.18" y="17.78"/>
<vertex x="-5.08" y="17.78"/>
</polygon>
<via x="-3.33375" y="7.3025" extent="1-16" drill="0.3" diameter="0.6"/>
<via x="-1.11125" y="7.3025" extent="1-16" drill="0.3" diameter="0.6"/>
<via x="-1.11125" y="5.715" extent="1-16" drill="0.3" diameter="0.6"/>
<via x="-1.11125" y="-0.9525" extent="1-16" drill="0.3" diameter="0.6"/>
<via x="6.50875" y="7.3025" extent="1-16" drill="0.3" diameter="0.6"/>
<via x="13.97" y="6.35" extent="1-16" drill="0.3" diameter="0.6"/>
<via x="15.24" y="6.35" extent="1-16" drill="0.3" diameter="0.6"/>
<via x="20.32" y="7.62" extent="1-16" drill="0.3" diameter="0.6"/>
<via x="20.955" y="4.7625" extent="1-16" drill="0.3" diameter="0.6"/>
<via x="27.46375" y="13.6525" extent="1-16" drill="0.3" diameter="0.6"/>
<via x="28.73375" y="13.6525" extent="1-16" drill="0.3" diameter="0.6"/>
<via x="23.495" y="10.795" extent="1-16" drill="0.3" diameter="0.6"/>
<via x="15.71625" y="10.95375" extent="1-16" drill="0.3" diameter="0.6"/>
<via x="19.3675" y="10.795" extent="1-16" drill="0.3" diameter="0.6"/>
<via x="17.78" y="7.62" extent="1-16" drill="0.3" diameter="0.6"/>
<wire x1="26.035" y1="10.16" x2="27.46375" y2="10.16" width="0.254" layer="1"/>
<wire x1="27.46375" y1="10.16" x2="28.575" y2="11.27125" width="0.254" layer="1"/>
<wire x1="26.035" y1="11.43" x2="28.575" y2="11.43" width="0.254" layer="1"/>
<via x="20.955" y="3.4925" extent="1-16" drill="0.3" diameter="0.6"/>
</signal>
<signal name="PWM_1">
<contactref element="R6" pad="1"/>
<contactref element="J1" pad="4"/>
<wire x1="20.32" y1="0" x2="20.32" y2="2.12" width="0.254" layer="1"/>
<wire x1="20.32" y1="2.12" x2="19.265" y2="3.175" width="0.254" layer="1"/>
</signal>
<signal name="N$12">
<contactref element="FAN0" pad="3"/>
<contactref element="R4" pad="1"/>
<contactref element="R7" pad="2"/>
<wire x1="10.16" y1="6.35" x2="8.255" y2="8.255" width="0.254" layer="1"/>
<wire x1="8.255" y1="8.255" x2="7.835" y2="8.255" width="0.254" layer="1"/>
<wire x1="7.835" y1="8.255" x2="7.2" y2="8.89" width="0.254" layer="1"/>
<wire x1="7.14375" y1="10.73875" x2="7.14375" y2="8.94625" width="0.254" layer="1"/>
<wire x1="7.14375" y1="8.94625" x2="7.2" y2="8.89" width="0.254" layer="1"/>
</signal>
<signal name="TACHO_0">
<contactref element="C3" pad="1"/>
<contactref element="R7" pad="1"/>
<contactref element="J1" pad="11"/>
<wire x1="2.54" y1="0" x2="2.54" y2="1.905" width="0.254" layer="1"/>
<wire x1="-0.3175" y1="2.33375" x2="2.11125" y2="2.33375" width="0.254" layer="1"/>
<wire x1="5.5" y1="8.89" x2="5.5" y2="5.295" width="0.254" layer="1"/>
<wire x1="5.5" y1="5.295" x2="5.715" y2="5.08" width="0.254" layer="1"/>
<wire x1="5.715" y1="5.08" x2="5.715" y2="2.54" width="0.254" layer="1"/>
<wire x1="5.715" y1="2.54" x2="5.08" y2="1.905" width="0.254" layer="1"/>
<wire x1="5.08" y1="1.905" x2="2.54" y2="1.905" width="0.254" layer="1"/>
<wire x1="2.11125" y1="2.33375" x2="2.54" y2="1.905" width="0.254" layer="1"/>
</signal>
<signal name="N$14">
<contactref element="FAN1" pad="3"/>
<contactref element="R5" pad="1"/>
<contactref element="R8" pad="2"/>
<wire x1="-2.54" y1="5.93" x2="-2.54" y2="8.675" width="0.254" layer="1"/>
<wire x1="2.54" y1="6.35" x2="0.635" y2="8.255" width="0.254" layer="1"/>
<wire x1="0.635" y1="8.255" x2="-2.12" y2="8.255" width="0.254" layer="1"/>
<wire x1="-2.12" y1="8.255" x2="-2.54" y2="8.675" width="0.254" layer="1"/>
</signal>
<signal name="TACHO_1">
<contactref element="C4" pad="1"/>
<contactref element="R8" pad="1"/>
<contactref element="J1" pad="12"/>
<wire x1="0" y1="0" x2="-1.27" y2="1.27" width="0.254" layer="1"/>
<wire x1="-1.27" y1="1.27" x2="-2.175" y2="1.27" width="0.254" layer="1"/>
<wire x1="-2.175" y1="1.27" x2="-2.54" y2="1.635" width="0.254" layer="1"/>
<wire x1="-2.54" y1="4.23" x2="-2.54" y2="1.635" width="0.254" layer="1"/>
</signal>
<signal name="+5V">
<contactref element="R4" pad="2"/>
<contactref element="R5" pad="2"/>
<contactref element="R2" pad="2"/>
<contactref element="T0" pad="1"/>
<contactref element="R3" pad="2"/>
<contactref element="T1" pad="1"/>
<contactref element="OLED" pad="3"/>
<contactref element="IC1" pad="1"/>
<contactref element="C5" pad="1"/>
<contactref element="J2" pad="4"/>
<wire x1="22.86" y1="3.175" x2="22.86" y2="6.35" width="0.6096" layer="1"/>
<wire x1="26.095" y1="8.89" x2="24.13" y2="8.89" width="0.6096" layer="1"/>
<wire x1="24.13" y1="8.89" x2="22.86" y2="7.62" width="0.6096" layer="1"/>
<wire x1="22.86" y1="7.62" x2="22.86" y2="6.35" width="0.6096" layer="1"/>
<wire x1="26.095" y1="8.89" x2="27.46375" y2="8.89" width="0.6096" layer="1"/>
<wire x1="28.305" y1="8.89" x2="28.575" y2="9.16" width="0.6096" layer="1"/>
<wire x1="28.845" y1="8.89" x2="28.575" y2="9.16" width="0.6096" layer="1"/>
<wire x1="-2.54" y1="10.375" x2="-2.54" y2="11.43" width="0.254" layer="1"/>
<wire x1="-2.54" y1="11.43" x2="-1.27" y2="12.7" width="0.254" layer="1"/>
<wire x1="-1.27" y1="12.7" x2="6.8825" y2="12.7" width="0.254" layer="1"/>
<wire x1="6.8825" y1="12.7" x2="7.14375" y2="12.43875" width="0.254" layer="1"/>
<wire x1="7.14375" y1="12.43875" x2="7.14375" y2="13.49375" width="0.254" layer="1"/>
<wire x1="7.14375" y1="13.49375" x2="7.62" y2="13.97" width="0.254" layer="1"/>
<wire x1="7.62" y1="13.97" x2="7.62" y2="15.24" width="0.254" layer="1"/>
<wire x1="22.645" y1="9.525" x2="22.86" y2="9.31" width="0.254" layer="16"/>
<wire x1="22.86" y1="9.31" x2="22.86" y2="6.35" width="0.254" layer="16"/>
<wire x1="7.62" y1="13.97" x2="8.255" y2="13.335" width="0.6096" layer="16"/>
<wire x1="8.255" y1="13.335" x2="12.065" y2="13.335" width="0.6096" layer="16"/>
<wire x1="12.065" y1="13.335" x2="13.97" y2="11.43" width="0.6096" layer="16"/>
<wire x1="13.97" y1="11.43" x2="13.97" y2="9.525" width="0.6096" layer="16"/>
<wire x1="13.97" y1="9.525" x2="17.145" y2="6.35" width="0.6096" layer="16"/>
<wire x1="17.145" y1="6.35" x2="22.86" y2="6.35" width="0.6096" layer="16"/>
<wire x1="7.62" y1="13.97" x2="7.62" y2="15.24" width="0.6096" layer="16"/>
<via x="27.46375" y="7.9375" extent="1-16" drill="0.3" diameter="0.6"/>
<wire x1="32.86125" y1="8.89" x2="28.575" y2="8.89" width="0.6096" layer="1"/>
<wire x1="28.575" y1="8.89" x2="28.575" y2="9.16" width="0.6096" layer="1"/>
<wire x1="27.46375" y1="7.9375" x2="27.46375" y2="8.89" width="0.6096" layer="1"/>
<wire x1="27.46375" y1="8.89" x2="28.305" y2="8.89" width="0.6096" layer="1"/>
<wire x1="27.46375" y1="7.9375" x2="27.46375" y2="8.83375" width="0.254" layer="16"/>
<wire x1="27.46375" y1="8.83375" x2="28.155" y2="9.525" width="0.254" layer="16"/>
</signal>
<signal name="TEMP_0">
<contactref element="T0" pad="2"/>
<contactref element="R2" pad="1"/>
<contactref element="C1" pad="1"/>
<wire x1="25.4" y1="3.175" x2="26.67" y2="4.445" width="0.254" layer="16"/>
<wire x1="26.67" y1="4.445" x2="26.67" y2="8.89" width="0.254" layer="16"/>
<wire x1="26.455" y1="9.525" x2="26.455" y2="9.105" width="0.254" layer="16"/>
<wire x1="26.455" y1="9.105" x2="26.67" y2="8.89" width="0.254" layer="16"/>
<wire x1="26.455" y1="9.525" x2="26.455" y2="11.915" width="0.254" layer="16"/>
<wire x1="26.455" y1="11.915" x2="26.305" y2="12.065" width="0.254" layer="16"/>
<contactref element="J2" pad="8"/>
<wire x1="17.78" y1="15.24" x2="19.05" y2="13.97" width="0.254" layer="16"/>
<wire x1="19.05" y1="13.97" x2="25.4" y2="13.97" width="0.254" layer="16"/>
<wire x1="25.4" y1="13.97" x2="26.305" y2="13.065" width="0.254" layer="16"/>
<wire x1="26.305" y1="13.065" x2="26.305" y2="12.065" width="0.254" layer="16"/>
</signal>
<signal name="TEMP_1">
<contactref element="T1" pad="2"/>
<contactref element="R3" pad="1"/>
<contactref element="C2" pad="1"/>
<contactref element="J2" pad="7"/>
<wire x1="25.4" y1="6.35" x2="25.4" y2="7.62" width="0.254" layer="16"/>
<wire x1="25.4" y1="7.62" x2="24.345" y2="8.675" width="0.254" layer="16"/>
<wire x1="24.345" y1="8.675" x2="24.345" y2="9.525" width="0.254" layer="16"/>
<wire x1="24.345" y1="9.525" x2="24.495" y2="9.675" width="0.254" layer="16"/>
<wire x1="24.495" y1="9.675" x2="24.495" y2="12.065" width="0.254" layer="16"/>
<wire x1="15.24" y1="15.24" x2="17.145" y2="13.335" width="0.254" layer="16"/>
<wire x1="17.145" y1="13.335" x2="24.13" y2="13.335" width="0.254" layer="16"/>
<wire x1="24.13" y1="13.335" x2="24.495" y2="12.97" width="0.254" layer="16"/>
<wire x1="24.495" y1="12.97" x2="24.495" y2="12.065" width="0.254" layer="16"/>
</signal>
<signal name="SCL">
<contactref element="OLED" pad="2"/>
<contactref element="J1" pad="7"/>
<wire x1="32.86125" y1="6.35" x2="33.02" y2="6.35" width="0.254" layer="16"/>
<wire x1="33.02" y1="6.35" x2="34.29" y2="5.08" width="0.254" layer="16"/>
<wire x1="34.29" y1="5.08" x2="34.29" y2="1.905" width="0.254" layer="16"/>
<wire x1="34.29" y1="1.905" x2="33.655" y2="1.27" width="0.254" layer="16"/>
<wire x1="33.655" y1="1.27" x2="13.97" y2="1.27" width="0.254" layer="16"/>
<wire x1="13.97" y1="1.27" x2="12.7" y2="0" width="0.254" layer="16"/>
</signal>
<signal name="SDA">
<contactref element="OLED" pad="1"/>
<contactref element="J1" pad="8"/>
<wire x1="32.86125" y1="3.81" x2="32.86125" y2="2.38125" width="0.254" layer="16"/>
<wire x1="32.86125" y1="2.38125" x2="32.385" y2="1.905" width="0.254" layer="16"/>
<wire x1="32.385" y1="1.905" x2="12.065" y2="1.905" width="0.254" layer="16"/>
<wire x1="12.065" y1="1.905" x2="10.16" y2="0" width="0.254" layer="16"/>
</signal>
<signal name="KEY0">
<contactref element="K0" pad="2"/>
<contactref element="K0" pad="1"/>
<contactref element="J1" pad="1"/>
<wire x1="35.36315" y1="6.26745" x2="35.36315" y2="1.27" width="0.254" layer="1"/>
<wire x1="35.36315" y1="1.27" x2="35.36315" y2="-0.23495" width="0.254" layer="1"/>
<wire x1="27.94" y1="0" x2="29.21" y2="1.27" width="0.254" layer="1"/>
<wire x1="29.21" y1="1.27" x2="35.36315" y2="1.27" width="0.254" layer="1"/>
</signal>
<signal name="KEY1">
<contactref element="K1" pad="1"/>
<contactref element="K1" pad="2"/>
<contactref element="J1" pad="2"/>
<wire x1="35.36315" y1="15.47495" x2="35.36315" y2="8.97255" width="0.254" layer="1"/>
<wire x1="35.36315" y1="8.97255" x2="35.36315" y2="8.69315" width="0.254" layer="1"/>
<wire x1="35.36315" y1="8.69315" x2="34.29" y2="7.62" width="0.254" layer="1"/>
<wire x1="34.29" y1="7.62" x2="32.22625" y2="7.62" width="0.254" layer="1"/>
<wire x1="32.22625" y1="7.62" x2="31.59125" y2="6.985" width="0.254" layer="1"/>
<wire x1="31.59125" y1="6.985" x2="31.59125" y2="2.38125" width="0.254" layer="1"/>
<wire x1="31.59125" y1="2.38125" x2="31.115" y2="1.905" width="0.254" layer="1"/>
<wire x1="31.115" y1="1.905" x2="27.305" y2="1.905" width="0.254" layer="1"/>
<wire x1="27.305" y1="1.905" x2="25.4" y2="0" width="0.254" layer="1"/>
</signal>
</signals>
<errors>
<approved hash="18,30,230504928be35b2f"/>
<approved hash="18,30,66be4826c7051c1e"/>
<approved hash="18,30,56436f6d96a2aa0e"/>
<approved hash="18,30,dc6d0bd28368cfa0"/>
<approved hash="18,30,59006f0214836a0a"/>
<approved hash="18,30,412125b964e9fbda"/>
<approved hash="18,30,0673e59824e638e5"/>
<approved hash="18,30,9719be04da709b51"/>
<approved hash="18,30,d4aa4b8557798ef3"/>
<approved hash="18,30,879b23031a2036c4"/>
<approved hash="18,30,09dfd9b7e0c6ba0a"/>
<approved hash="18,30,0d6e3840c18ff123"/>
<approved hash="18,30,03037b0212835608"/>
<approved hash="18,30,0d42e4fefe6aef8d"/>
<approved hash="18,30,aa0c829429e9d1f1"/>
<approved hash="18,30,8a33812f9d703d7d"/>
<approved hash="18,30,90ac5183f179d0f3"/>
<approved hash="18,30,4b5ea899ece7f0c8"/>
<approved hash="18,30,82ceb6151e807b0e"/>
<approved hash="18,30,8c6971cd0789e4a5"/>
<approved hash="18,30,fe0f741aeda16066"/>
<approved hash="18,30,3780d957c2bb2f73"/>
<approved hash="18,30,17c7a423d3493d51"/>
<approved hash="19,1,23d63190027ce55e"/>
<approved hash="19,1,c7d7d5ba4156a65f"/>
</errors>
</board>
</drawing>
<compatibility>
<note version="6.3" minversion="6.2.2" severity="warning">
Since Version 6.2.2 text objects can contain more than one line,
which will not be processed correctly with this version.
</note>
</compatibility>
</eagle>
